{
  "name": "INCycleBannerView",
  "version": "1.0",
  "license": "MIT",
  "homepage": "https://github.com/kingiol/KDCycleBannerView",
  "authors": {
    "Kingiol": "kingxiaokang@gmail.com"
  },
  "summary": "A Cycle Or Loop ScrollView For Banner",
  "platforms": {
    "ios": "5.0"
  },
  "source": {
    "git": "https://github.com/indevizible/KDCycleBannerView.git",
    "tag": "1.0"
  },
  "source_files": "KDCycleBannerView/*{h,m}",
  "requires_arc": true,
  "dependencies": {
    "AFNetworking": [

    ]
  }
}